%YAML 1.1
%TAG !u! tag:unity3d.com,2011:
--- !u!1 &3168427698595059591
GameObject:
  m_ObjectHideFlags: 0
  m_CorrespondingSourceObject: {fileID: 0}
  m_PrefabInstance: {fileID: 0}
  m_PrefabAsset: {fileID: 0}
  serializedVersion: 6
  m_Component:
  - component: {fileID: 3168427698595059585}
  - component: {fileID: 3168427698595059590}
  m_Layer: 0
  m_Name: Controller
  m_TagString: Untagged
  m_Icon: {fileID: 0}
  m_NavMeshLayer: 0
  m_StaticEditorFlags: 0
  m_IsActive: 0
--- !u!4 &3168427698595059585
Transform:
  m_ObjectHideFlags: 0
  m_CorrespondingSourceObject: {fileID: 0}
  m_PrefabInstance: {fileID: 0}
  m_PrefabAsset: {fileID: 0}
  m_GameObject: {fileID: 3168427698595059591}
  m_LocalRotation: {x: 0, y: 0, z: 0, w: 1}
  m_LocalPosition: {x: 0, y: 0, z: 0}
  m_LocalScale: {x: 1, y: 1, z: 1}
  m_Children: []
  m_Father: {fileID: 0}
  m_RootOrder: 0
  m_LocalEulerAnglesHint: {x: 0, y: 0, z: 0}
--- !u!114 &3168427698595059590
MonoBehaviour:
  m_ObjectHideFlags: 0
  m_CorrespondingSourceObject: {fileID: 0}
  m_PrefabInstance: {fileID: 0}
  m_PrefabAsset: {fileID: 0}
  m_GameObject: {fileID: 3168427698595059591}
  m_Enabled: 1
  m_EditorHideFlags: 0
  m_Script: {fileID: 11500000, guid: e277f4e9ddc26b04285ab05890c445d6, type: 3}
  m_Name: 
  m_EditorClassIdentifier: 
  targetPrefab: {fileID: 8904424834318067019, guid: 44d23bed9c6887d4c9c59d86c5fca0a7,
    type: 3}
  shootingPosition: {fileID: 0}
  distanceVector:
  - {x: -1.5, y: 0, z: 2.799}
  - {x: -0.92, y: 0, z: 3.67}
  - {x: 0.139, y: 0, z: 2.201}
  - {x: 0.914, y: 0, z: 1.768}
  - {x: 1.8, y: 0, z: 2.85}
  orderOfTargets: 0400000002000000030000000100000000000000
